{
  "data_classification": "sanitized_and_synthetic",
  "disclaimer": "Sanitized portfolio snapshot. Geometry and identifiers are synthetic.",
  "generated_at": "2026-07-20T12:00:00-04:00",
  "items": [
    {
      "asset_category": "pipe",
      "asset_subcategory": "gravity_main",
      "assigned_to": "",
      "category": "connectivity",
      "confidence": "high",
      "created_at": "2026-07-20T12:00:00-04:00",
      "currently_present": true,
      "dependency_explanation": "Missing dependent layers may explain this condition; it remains a review candidate.",
      "description": "Endpoint is outside the 3 foot demo tolerance.",
      "detection_method": "Synthetic demo rule output using configured thresholds.",
      "disposition": "unreviewed",
      "engineering_review_required": true,
      "evidence_notes": "",
      "field_verification_required": false,
      "finding_class": "network defect",
      "first_seen_at": "2026-07-20T12:00:00-04:00",
      "first_seen_run_id": "demo-run-2026-07-20",
      "issue_fingerprint": "demo-fingerprint-001",
      "issue_id": "DEMO-ISSUE-001",
      "latest_seen_at": "2026-07-20T12:00:00-04:00",
      "latest_seen_run_id": "demo-run-2026-07-20",
      "network_group": "gravity_network",
      "occurrence_count": 1,
      "possible_missing_dependency": "force_main",
      "recommended_action": "Review source context and record a disposition; do not edit source geometry from this page.",
      "related_asset_id": "MH-DEMO-010",
      "related_objectid": "2000",
      "review_notes": "",
      "review_priority": "high",
      "review_status": "open",
      "reviewer": "",
      "rule_adjustment_candidate": false,
      "rule_code": "WW_NET_001",
      "rule_name": "Pipe endpoint lacks nearby manhole",
      "run_id": "demo-run-2026-07-20",
      "safe_geometry": {
        "spatial_reference_wkid": 3857,
        "type": "point",
        "x": -13623220,
        "y": 4541200
      },
      "severity": "high",
      "source_asset_id": "GM-DEMO-004",
      "source_layer": "demo_gravity_main",
      "source_objectid": "1000",
      "threshold_used": "3 feet",
      "utility_system": "wastewater",
      "why_it_matters": "Candidate finding for portfolio review workflow demonstration.",
      "workflow_status": "open"
    },
    {
      "asset_category": "pipe",
      "asset_subcategory": "gravity_main",
      "assigned_to": "",
      "category": "connectivity",
      "confidence": "medium",
      "created_at": "2026-07-20T12:00:00-04:00",
      "currently_present": true,
      "dependency_explanation": "Missing dependent layers may explain this condition; it remains a review candidate.",
      "description": "Pipe is in a small disconnected component.",
      "detection_method": "Synthetic demo rule output using configured thresholds.",
      "disposition": "unreviewed",
      "engineering_review_required": true,
      "evidence_notes": "",
      "field_verification_required": false,
      "finding_class": "network defect",
      "first_seen_at": "2026-07-20T12:00:00-04:00",
      "first_seen_run_id": "demo-run-2026-07-20",
      "issue_fingerprint": "demo-fingerprint-002",
      "issue_id": "DEMO-ISSUE-002",
      "latest_seen_at": "2026-07-20T12:00:00-04:00",
      "latest_seen_run_id": "demo-run-2026-07-20",
      "network_group": "gravity_network",
      "occurrence_count": 1,
      "possible_missing_dependency": "external_jurisdiction_network",
      "recommended_action": "Review source context and record a disposition; do not edit source geometry from this page.",
      "related_asset_id": "MH-DEMO-010",
      "related_objectid": "2001",
      "review_notes": "",
      "review_priority": "high",
      "review_status": "open",
      "reviewer": "",
      "rule_adjustment_candidate": false,
      "rule_code": "WW_NET_006",
      "rule_name": "Isolated pipe segment",
      "run_id": "demo-run-2026-07-20",
      "safe_geometry": {
        "spatial_reference_wkid": 3857,
        "type": "point",
        "x": -13622662,
        "y": 4541244
      },
      "severity": "high",
      "source_asset_id": "GM-DEMO-058",
      "source_layer": "demo_gravity_main",
      "source_objectid": "1001",
      "threshold_used": "3 feet",
      "utility_system": "wastewater",
      "why_it_matters": "Candidate finding for portfolio review workflow demonstration.",
      "workflow_status": "open"
    },
    {
      "asset_category": "pipe",
      "asset_subcategory": "gravity_main",
      "assigned_to": "",
      "category": "geometry",
      "confidence": "high",
      "created_at": "2026-07-20T12:00:00-04:00",
      "currently_present": true,
      "dependency_explanation": "Missing dependent layers may explain this condition; it remains a review candidate.",
      "description": "Segment is shorter than the configured 5 foot threshold.",
      "detection_method": "Synthetic demo rule output using configured thresholds.",
      "disposition": "unreviewed",
      "engineering_review_required": false,
      "evidence_notes": "",
      "field_verification_required": false,
      "finding_class": "geometry defect",
      "first_seen_at": "2026-07-20T12:00:00-04:00",
      "first_seen_run_id": "demo-run-2026-07-20",
      "issue_fingerprint": "demo-fingerprint-003",
      "issue_id": "DEMO-ISSUE-003",
      "latest_seen_at": "2026-07-20T12:00:00-04:00",
      "latest_seen_run_id": "demo-run-2026-07-20",
      "network_group": "gravity_network",
      "occurrence_count": 1,
      "possible_missing_dependency": "unknown",
      "recommended_action": "Review source context and record a disposition; do not edit source geometry from this page.",
      "related_asset_id": "MH-DEMO-010",
      "related_objectid": "2002",
      "review_notes": "",
      "review_priority": "normal",
      "review_status": "open",
      "reviewer": "",
      "rule_adjustment_candidate": false,
      "rule_code": "WW_GEOM_003",
      "rule_name": "Very short pipe segment",
      "run_id": "demo-run-2026-07-20",
      "safe_geometry": {
        "spatial_reference_wkid": 3857,
        "type": "point",
        "x": -13622104,
        "y": 4541200
      },
      "severity": "medium",
      "source_asset_id": "GM-DEMO-019",
      "source_layer": "demo_gravity_main",
      "source_objectid": "1002",
      "threshold_used": "5 feet",
      "utility_system": "wastewater",
      "why_it_matters": "Candidate finding for portfolio review workflow demonstration.",
      "workflow_status": "open"
    },
    {
      "asset_category": "pipe",
      "asset_subcategory": "gravity_main",
      "assigned_to": "",
      "category": "identity",
      "confidence": "high",
      "created_at": "2026-07-20T12:00:00-04:00",
      "currently_present": true,
      "dependency_explanation": "Missing dependent layers may explain this condition; it remains a review candidate.",
      "description": "Safe identifier is blank in the staged source.",
      "detection_method": "Synthetic demo rule output using configured thresholds.",
      "disposition": "unreviewed",
      "engineering_review_required": false,
      "evidence_notes": "",
      "field_verification_required": true,
      "finding_class": "record defect",
      "first_seen_at": "2026-07-20T12:00:00-04:00",
      "first_seen_run_id": "demo-run-2026-07-20",
      "issue_fingerprint": "demo-fingerprint-004",
      "issue_id": "DEMO-ISSUE-004",
      "latest_seen_at": "2026-07-20T12:00:00-04:00",
      "latest_seen_run_id": "demo-run-2026-07-20",
      "network_group": "gravity_network",
      "occurrence_count": 1,
      "possible_missing_dependency": "unknown",
      "recommended_action": "Review source context and record a disposition; do not edit source geometry from this page.",
      "related_asset_id": "MH-DEMO-010",
      "related_objectid": "2003",
      "review_notes": "",
      "review_priority": "high",
      "review_status": "open",
      "reviewer": "",
      "rule_adjustment_candidate": false,
      "rule_code": "WW_ID_003",
      "rule_name": "Missing pipe asset ID",
      "run_id": "demo-run-2026-07-20",
      "safe_geometry": {
        "spatial_reference_wkid": 3857,
        "type": "point",
        "x": -13623978,
        "y": 4541434
      },
      "severity": "high",
      "source_asset_id": "GM-DEMO-027",
      "source_layer": "demo_gravity_main",
      "source_objectid": "1003",
      "threshold_used": "Configured source rule",
      "utility_system": "wastewater",
      "why_it_matters": "Candidate finding for portfolio review workflow demonstration.",
      "workflow_status": "open"
    },
    {
      "asset_category": "access_structure",
      "asset_subcategory": "manhole",
      "assigned_to": "",
      "category": "identity",
      "confidence": "medium",
      "created_at": "2026-07-20T12:00:00-04:00",
      "currently_present": true,
      "dependency_explanation": "Missing dependent layers may explain this condition; it remains a review candidate.",
      "description": "Identifier appears on more than one staged manhole.",
      "detection_method": "Synthetic demo rule output using configured thresholds.",
      "disposition": "unreviewed",
      "engineering_review_required": false,
      "evidence_notes": "",
      "field_verification_required": true,
      "finding_class": "record defect",
      "first_seen_at": "2026-07-20T12:00:00-04:00",
      "first_seen_run_id": "demo-run-2026-07-20",
      "issue_fingerprint": "demo-fingerprint-005",
      "issue_id": "DEMO-ISSUE-005",
      "latest_seen_at": "2026-07-20T12:00:00-04:00",
      "latest_seen_run_id": "demo-run-2026-07-20",
      "network_group": "structures",
      "occurrence_count": 1,
      "possible_missing_dependency": "unknown",
      "recommended_action": "Review source context and record a disposition; do not edit source geometry from this page.",
      "related_asset_id": "GM-DEMO-010",
      "related_objectid": "2004",
      "review_notes": "",
      "review_priority": "normal",
      "review_status": "open",
      "reviewer": "",
      "rule_adjustment_candidate": false,
      "rule_code": "WW_ID_002",
      "rule_name": "Duplicate manhole asset ID",
      "run_id": "demo-run-2026-07-20",
      "safe_geometry": {
        "spatial_reference_wkid": 3857,
        "type": "point",
        "x": -13623420,
        "y": 4541390
      },
      "severity": "medium",
      "source_asset_id": "MH-DEMO-012",
      "source_layer": "demo_manhole",
      "source_objectid": "1004",
      "threshold_used": "Configured source rule",
      "utility_system": "wastewater",
      "why_it_matters": "Candidate finding for portfolio review workflow demonstration.",
      "workflow_status": "open"
    },
    {
      "asset_category": "pipe",
      "asset_subcategory": "gravity_main",
      "assigned_to": "",
      "category": "attributes",
      "confidence": "high",
      "created_at": "2026-07-20T12:00:00-04:00",
      "currently_present": true,
      "dependency_explanation": "Missing dependent layers may explain this condition; it remains a review candidate.",
      "description": "Installation year is unavailable in the source schema.",
      "detection_method": "Synthetic demo rule output using configured thresholds.",
      "disposition": "unreviewed",
      "engineering_review_required": false,
      "evidence_notes": "",
      "field_verification_required": true,
      "finding_class": "attribute completeness gap",
      "first_seen_at": "2026-07-20T12:00:00-04:00",
      "first_seen_run_id": "demo-run-2026-07-20",
      "issue_fingerprint": "demo-fingerprint-006",
      "issue_id": "DEMO-ISSUE-006",
      "latest_seen_at": "2026-07-20T12:00:00-04:00",
      "latest_seen_run_id": "demo-run-2026-07-20",
      "network_group": "gravity_network",
      "occurrence_count": 1,
      "possible_missing_dependency": "unknown",
      "recommended_action": "Review source context and record a disposition; do not edit source geometry from this page.",
      "related_asset_id": "MH-DEMO-010",
      "related_objectid": "2005",
      "review_notes": "",
      "review_priority": "normal",
      "review_status": "open",
      "reviewer": "",
      "rule_adjustment_candidate": false,
      "rule_code": "WW_ATTR_006",
      "rule_name": "Missing installation date",
      "run_id": "demo-run-2026-07-20",
      "safe_geometry": {
        "spatial_reference_wkid": 3857,
        "type": "point",
        "x": -13622862,
        "y": 4541434
      },
      "severity": "low",
      "source_asset_id": "GM-DEMO-034",
      "source_layer": "demo_gravity_main",
      "source_objectid": "1005",
      "threshold_used": "Configured source rule",
      "utility_system": "wastewater",
      "why_it_matters": "Candidate finding for portfolio review workflow demonstration.",
      "workflow_status": "open"
    },
    {
      "asset_category": "pipe",
      "asset_subcategory": "gravity_main",
      "assigned_to": "",
      "category": "attributes",
      "confidence": "high",
      "created_at": "2026-07-20T12:00:00-04:00",
      "currently_present": true,
      "dependency_explanation": "Missing dependent layers may explain this condition; it remains a review candidate.",
      "description": "Material should be confirmed by the data owner before standardization.",
      "detection_method": "Synthetic demo rule output using configured thresholds.",
      "disposition": "unreviewed",
      "engineering_review_required": false,
      "evidence_notes": "",
      "field_verification_required": true,
      "finding_class": "attribute completeness gap",
      "first_seen_at": "2026-07-20T12:00:00-04:00",
      "first_seen_run_id": "demo-run-2026-07-20",
      "issue_fingerprint": "demo-fingerprint-007",
      "issue_id": "DEMO-ISSUE-007",
      "latest_seen_at": "2026-07-20T12:00:00-04:00",
      "latest_seen_run_id": "demo-run-2026-07-20",
      "network_group": "gravity_network",
      "occurrence_count": 1,
      "possible_missing_dependency": "unknown",
      "recommended_action": "Review source context and record a disposition; do not edit source geometry from this page.",
      "related_asset_id": "MH-DEMO-010",
      "related_objectid": "2006",
      "review_notes": "",
      "review_priority": "normal",
      "review_status": "open",
      "reviewer": "",
      "rule_adjustment_candidate": false,
      "rule_code": "WW_ATTR_002",
      "rule_name": "Missing pipe material",
      "run_id": "demo-run-2026-07-20",
      "safe_geometry": {
        "spatial_reference_wkid": 3857,
        "type": "point",
        "x": -13622418,
        "y": 4541390
      },
      "severity": "low",
      "source_asset_id": "GM-DEMO-041",
      "source_layer": "demo_gravity_main",
      "source_objectid": "1006",
      "threshold_used": "Configured source rule",
      "utility_system": "wastewater",
      "why_it_matters": "Candidate finding for portfolio review workflow demonstration.",
      "workflow_status": "open"
    },
    {
      "asset_category": "access_structure",
      "asset_subcategory": "manhole",
      "assigned_to": "",
      "category": "connectivity",
      "confidence": "medium",
      "created_at": "2026-07-20T12:00:00-04:00",
      "currently_present": true,
      "dependency_explanation": "Missing dependent layers may explain this condition; it remains a review candidate.",
      "description": "Manhole has no nearby pipe endpoint in the demo sample.",
      "detection_method": "Synthetic demo rule output using configured thresholds.",
      "disposition": "unreviewed",
      "engineering_review_required": true,
      "evidence_notes": "",
      "field_verification_required": false,
      "finding_class": "network defect",
      "first_seen_at": "2026-07-20T12:00:00-04:00",
      "first_seen_run_id": "demo-run-2026-07-20",
      "issue_fingerprint": "demo-fingerprint-008",
      "issue_id": "DEMO-ISSUE-008",
      "latest_seen_at": "2026-07-20T12:00:00-04:00",
      "latest_seen_run_id": "demo-run-2026-07-20",
      "network_group": "structures",
      "occurrence_count": 1,
      "possible_missing_dependency": "service_lateral",
      "recommended_action": "Review source context and record a disposition; do not edit source geometry from this page.",
      "related_asset_id": "GM-DEMO-010",
      "related_objectid": "2007",
      "review_notes": "",
      "review_priority": "normal",
      "review_status": "open",
      "reviewer": "",
      "rule_adjustment_candidate": false,
      "rule_code": "WW_NET_007",
      "rule_name": "Isolated manhole",
      "run_id": "demo-run-2026-07-20",
      "safe_geometry": {
        "spatial_reference_wkid": 3857,
        "type": "point",
        "x": -13621860,
        "y": 4541434
      },
      "severity": "medium",
      "source_asset_id": "MH-DEMO-052",
      "source_layer": "demo_manhole",
      "source_objectid": "1007",
      "threshold_used": "3 feet",
      "utility_system": "wastewater",
      "why_it_matters": "Candidate finding for portfolio review workflow demonstration.",
      "workflow_status": "open"
    },
    {
      "asset_category": "pipe",
      "asset_subcategory": "gravity_main",
      "assigned_to": "",
      "category": "connectivity",
      "confidence": "high",
      "created_at": "2026-07-20T12:00:00-04:00",
      "currently_present": true,
      "dependency_explanation": "Missing dependent layers may explain this condition; it remains a review candidate.",
      "description": "Endpoint is outside the 3 foot demo tolerance.",
      "detection_method": "Synthetic demo rule output using configured thresholds.",
      "disposition": "unreviewed",
      "engineering_review_required": true,
      "evidence_notes": "",
      "field_verification_required": false,
      "finding_class": "network defect",
      "first_seen_at": "2026-07-20T12:00:00-04:00",
      "first_seen_run_id": "demo-run-2026-07-20",
      "issue_fingerprint": "demo-fingerprint-009",
      "issue_id": "DEMO-ISSUE-009",
      "latest_seen_at": "2026-07-20T12:00:00-04:00",
      "latest_seen_run_id": "demo-run-2026-07-20",
      "network_group": "gravity_network",
      "occurrence_count": 1,
      "possible_missing_dependency": "force_main",
      "recommended_action": "Review source context and record a disposition; do not edit source geometry from this page.",
      "related_asset_id": "MH-DEMO-010",
      "related_objectid": "2008",
      "review_notes": "",
      "review_priority": "high",
      "review_status": "open",
      "reviewer": "",
      "rule_adjustment_candidate": false,
      "rule_code": "WW_NET_001",
      "rule_name": "Pipe endpoint lacks nearby manhole",
      "run_id": "demo-run-2026-07-20",
      "safe_geometry": {
        "spatial_reference_wkid": 3857,
        "type": "point",
        "x": -13623664,
        "y": 4541580
      },
      "severity": "high",
      "source_asset_id": "GM-DEMO-004",
      "source_layer": "demo_gravity_main",
      "source_objectid": "1008",
      "threshold_used": "3 feet",
      "utility_system": "wastewater",
      "why_it_matters": "Candidate finding for portfolio review workflow demonstration.",
      "workflow_status": "open"
    },
    {
      "asset_category": "pipe",
      "asset_subcategory": "gravity_main",
      "assigned_to": "",
      "category": "connectivity",
      "confidence": "medium",
      "created_at": "2026-07-20T12:00:00-04:00",
      "currently_present": true,
      "dependency_explanation": "Missing dependent layers may explain this condition; it remains a review candidate.",
      "description": "Pipe is in a small disconnected component.",
      "detection_method": "Synthetic demo rule output using configured thresholds.",
      "disposition": "unreviewed",
      "engineering_review_required": true,
      "evidence_notes": "",
      "field_verification_required": false,
      "finding_class": "network defect",
      "first_seen_at": "2026-07-20T12:00:00-04:00",
      "first_seen_run_id": "demo-run-2026-07-20",
      "issue_fingerprint": "demo-fingerprint-010",
      "issue_id": "DEMO-ISSUE-010",
      "latest_seen_at": "2026-07-20T12:00:00-04:00",
      "latest_seen_run_id": "demo-run-2026-07-20",
      "network_group": "gravity_network",
      "occurrence_count": 1,
      "possible_missing_dependency": "external_jurisdiction_network",
      "recommended_action": "Review source context and record a disposition; do not edit source geometry from this page.",
      "related_asset_id": "MH-DEMO-010",
      "related_objectid": "2009",
      "review_notes": "",
      "review_priority": "high",
      "review_status": "open",
      "reviewer": "",
      "rule_adjustment_candidate": false,
      "rule_code": "WW_NET_006",
      "rule_name": "Isolated pipe segment",
      "run_id": "demo-run-2026-07-20",
      "safe_geometry": {
        "spatial_reference_wkid": 3857,
        "type": "point",
        "x": -13623220,
        "y": 4541624
      },
      "severity": "high",
      "source_asset_id": "GM-DEMO-058",
      "source_layer": "demo_gravity_main",
      "source_objectid": "1009",
      "threshold_used": "3 feet",
      "utility_system": "wastewater",
      "why_it_matters": "Candidate finding for portfolio review workflow demonstration.",
      "workflow_status": "open"
    },
    {
      "asset_category": "pipe",
      "asset_subcategory": "gravity_main",
      "assigned_to": "",
      "category": "geometry",
      "confidence": "high",
      "created_at": "2026-07-20T12:00:00-04:00",
      "currently_present": true,
      "dependency_explanation": "Missing dependent layers may explain this condition; it remains a review candidate.",
      "description": "Segment is shorter than the configured 5 foot threshold.",
      "detection_method": "Synthetic demo rule output using configured thresholds.",
      "disposition": "unreviewed",
      "engineering_review_required": false,
      "evidence_notes": "",
      "field_verification_required": false,
      "finding_class": "geometry defect",
      "first_seen_at": "2026-07-20T12:00:00-04:00",
      "first_seen_run_id": "demo-run-2026-07-20",
      "issue_fingerprint": "demo-fingerprint-011",
      "issue_id": "DEMO-ISSUE-011",
      "latest_seen_at": "2026-07-20T12:00:00-04:00",
      "latest_seen_run_id": "demo-run-2026-07-20",
      "network_group": "gravity_network",
      "occurrence_count": 1,
      "possible_missing_dependency": "unknown",
      "recommended_action": "Review source context and record a disposition; do not edit source geometry from this page.",
      "related_asset_id": "MH-DEMO-010",
      "related_objectid": "2010",
      "review_notes": "",
      "review_priority": "normal",
      "review_status": "open",
      "reviewer": "",
      "rule_adjustment_candidate": false,
      "rule_code": "WW_GEOM_003",
      "rule_name": "Very short pipe segment",
      "run_id": "demo-run-2026-07-20",
      "safe_geometry": {
        "spatial_reference_wkid": 3857,
        "type": "point",
        "x": -13622662,
        "y": 4541580
      },
      "severity": "medium",
      "source_asset_id": "GM-DEMO-019",
      "source_layer": "demo_gravity_main",
      "source_objectid": "1010",
      "threshold_used": "5 feet",
      "utility_system": "wastewater",
      "why_it_matters": "Candidate finding for portfolio review workflow demonstration.",
      "workflow_status": "open"
    },
    {
      "asset_category": "pipe",
      "asset_subcategory": "gravity_main",
      "assigned_to": "",
      "category": "identity",
      "confidence": "high",
      "created_at": "2026-07-20T12:00:00-04:00",
      "currently_present": true,
      "dependency_explanation": "Missing dependent layers may explain this condition; it remains a review candidate.",
      "description": "Safe identifier is blank in the staged source.",
      "detection_method": "Synthetic demo rule output using configured thresholds.",
      "disposition": "unreviewed",
      "engineering_review_required": false,
      "evidence_notes": "",
      "field_verification_required": true,
      "finding_class": "record defect",
      "first_seen_at": "2026-07-20T12:00:00-04:00",
      "first_seen_run_id": "demo-run-2026-07-20",
      "issue_fingerprint": "demo-fingerprint-012",
      "issue_id": "DEMO-ISSUE-012",
      "latest_seen_at": "2026-07-20T12:00:00-04:00",
      "latest_seen_run_id": "demo-run-2026-07-20",
      "network_group": "gravity_network",
      "occurrence_count": 1,
      "possible_missing_dependency": "unknown",
      "recommended_action": "Review source context and record a disposition; do not edit source geometry from this page.",
      "related_asset_id": "MH-DEMO-010",
      "related_objectid": "2011",
      "review_notes": "",
      "review_priority": "high",
      "review_status": "open",
      "reviewer": "",
      "rule_adjustment_candidate": false,
      "rule_code": "WW_ID_003",
      "rule_name": "Missing pipe asset ID",
      "run_id": "demo-run-2026-07-20",
      "safe_geometry": {
        "spatial_reference_wkid": 3857,
        "type": "point",
        "x": -13622104,
        "y": 4541624
      },
      "severity": "high",
      "source_asset_id": "GM-DEMO-027",
      "source_layer": "demo_gravity_main",
      "source_objectid": "1011",
      "threshold_used": "Configured source rule",
      "utility_system": "wastewater",
      "why_it_matters": "Candidate finding for portfolio review workflow demonstration.",
      "workflow_status": "open"
    }
  ],
  "live_system_connected": false,
  "mode": "portfolio_demo",
  "ordering": [
    "high severity and high confidence",
    "unmatched endpoints",
    "isolated pipes",
    "isolated manholes",
    "identity issues",
    "geometry issues",
    "attribute completeness findings"
  ],
  "pagination": {
    "has_more": true,
    "limit": 12,
    "offset": 0,
    "total": 24
  },
  "seed": 20260720,
  "total": 72,
  "writes_persisted": false
}
